{
    "name": "TKDCustomInput",
    "maps": [
        {
            "name": "UI",
            "id": "6e1ab292-6dfe-4f80-b030-a1d94f066684",
            "actions": [
                {
                    "name": "SettingShortcut",
                    "type": "Button",
                    "id": "94edd9f0-5dc1-43df-820f-3d686b102389",
                    "expectedControlType": "Button",
                    "processors": "",
                    "interactions": "",
                    "initialStateCheck": false
                },
                {
                    "name": "Navigate",
                    "type": "Value",
                    "id": "5bbb5828-a9de-4b7c-a346-00faeed9eb0a",
                    "expectedControlType": "Vector2",
                    "processors": "",
                    "interactions": "",
                    "initialStateCheck": true
                },
                {
                    "name": "Submit",
                    "type": "Button",
                    "id": "5a51741f-bf29-41ca-8f21-0e47155ff31a",
                    "expectedControlType": "Button",
                    "processors": "",
                    "interactions": "",
                    "initialStateCheck": false
                },
                {
                    "name": "Cancel",
                    "type": "Button",
                    "id": "e6828cb8-305d-48cd-a802-5c3a6f1f8690",
                    "expectedControlType": "Button",
                    "processors": "",
                    "interactions": "",
                    "initialStateCheck": false
                },
                {
                    "name": "Point",
                    "type": "PassThrough",
                    "id": "6ccc3eaa-c5c5-4997-ad18-e1b4b6c6b940",
                    "expectedControlType": "Vector2",
                    "processors": "",
                    "interactions": "",
                    "initialStateCheck": false
                },
                {
                    "name": "Click",
                    "type": "PassThrough",
                    "id": "f7d09526-bb4a-4c41-b30a-47d46420af5b",
                    "expectedControlType": "Button",
                    "processors": "",
                    "interactions": "",
                    "initialStateCheck": false
                },
                {
                    "name": "ScrollWheel",
                    "type": "PassThrough",
                    "id": "f7c60c0d-f567-49ad-bfff-c68e34dd40c3",
                    "expectedControlType": "Vector2",
                    "processors": "",
                    "interactions": "",
                    "initialStateCheck": false
                },
                {
                    "name": "MiddleClick",
                    "type": "PassThrough",
                    "id": "1f4d6dd2-8f14-4714-b93e-6cbbf5e2887a",
                    "expectedControlType": "",
                    "processors": "",
                    "interactions": "",
                    "initialStateCheck": false
                },
                {
                    "name": "RightClick",
                    "type": "PassThrough",
                    "id": "326cf1d5-1855-4995-8b46-72d581e54a17",
                    "expectedControlType": "",
                    "processors": "",
                    "interactions": "",
                    "initialStateCheck": false
                },
                {
                    "name": "TrackedDevicePosition",
                    "type": "PassThrough",
                    "id": "fe2ac18e-f3cf-4c18-a707-5c4d553a8019",
                    "expectedControlType": "Vector3",
                    "processors": "",
                    "interactions": "",
                    "initialStateCheck": false
                },
                {
                    "name": "TrackedDeviceOrientation",
                    "type": "PassThrough",
                    "id": "67ee06d7-0b6e-4ae6-aefd-af52f807e5e2",
                    "expectedControlType": "Quaternion",
                    "processors": "",
                    "interactions": "",
                    "initialStateCheck": false
                },
                {
                    "name": "ScrollGamepad",
                    "type": "Value",
                    "id": "bd7d3c5e-1b28-42a8-9056-c3827dcdd954",
                    "expectedControlType": "Vector2",
                    "processors": "",
                    "interactions": "",
                    "initialStateCheck": true
                }
            ],
            "bindings": [
                {
                    "name": "Gamepad",
                    "id": "bcd2a654-e5e5-472f-b291-c91fc5bab9af",
                    "path": "2DVector",
                    "interactions": "",
                    "processors": "",
                    "groups": "",
                    "action": "Navigate",
                    "isComposite": true,
                    "isPartOfComposite": false
                },
                {
                    "name": "up",
                    "id": "ed5e6471-a611-4508-bde6-410c7cd072cf",
                    "path": "<Gamepad>/leftStick/up",
                    "interactions": "",
                    "processors": "",
                    "groups": ";Gamepad",
                    "action": "Navigate",
                    "isComposite": false,
                    "isPartOfComposite": true
                },
                {
                    "name": "down",
                    "id": "cedf0589-e1c3-4c73-b1db-98f73f464119",
                    "path": "<Gamepad>/leftStick/down",
                    "interactions": "",
                    "processors": "",
                    "groups": ";Gamepad",
                    "action": "Navigate",
                    "isComposite": false,
                    "isPartOfComposite": true
                },
                {
                    "name": "left",
                    "id": "d9fbd99a-a117-40fd-886c-18665cd5170c",
                    "path": "<Gamepad>/leftStick/left",
                    "interactions": "",
                    "processors": "",
                    "groups": ";Gamepad",
                    "action": "Navigate",
                    "isComposite": false,
                    "isPartOfComposite": true
                },
                {
                    "name": "right",
                    "id": "d5e46b55-a03a-442a-8336-4a4d5bf2960e",
                    "path": "<Gamepad>/leftStick/right",
                    "interactions": "",
                    "processors": "",
                    "groups": ";Gamepad",
                    "action": "Navigate",
                    "isComposite": false,
                    "isPartOfComposite": true
                },
                {
                    "name": "Joystick",
                    "id": "14cf3066-927a-4c64-a09d-a5df8f382ea7",
                    "path": "2DVector",
                    "interactions": "",
                    "processors": "",
                    "groups": "",
                    "action": "Navigate",
                    "isComposite": true,
                    "isPartOfComposite": false
                },
                {
                    "name": "up",
                    "id": "daf3373a-5bcd-49f4-bbd0-43e7476d6c2e",
                    "path": "<Joystick>/stick/up",
                    "interactions": "",
                    "processors": "",
                    "groups": "Joystick",
                    "action": "Navigate",
                    "isComposite": false,
                    "isPartOfComposite": true
                },
                {
                    "name": "down",
                    "id": "899bf2e7-ca73-446f-8292-b0613157da23",
                    "path": "<Joystick>/stick/down",
                    "interactions": "",
                    "processors": "",
                    "groups": "Joystick",
                    "action": "Navigate",
                    "isComposite": false,
                    "isPartOfComposite": true
                },
                {
                    "name": "left",
                    "id": "d7d87d5c-bdbc-43f9-b444-39412cb885df",
                    "path": "<Joystick>/stick/left",
                    "interactions": "",
                    "processors": "",
                    "groups": "Joystick",
                    "action": "Navigate",
                    "isComposite": false,
                    "isPartOfComposite": true
                },
                {
                    "name": "right",
                    "id": "fdb81604-2dfa-4c23-8469-8b26a16690c5",
                    "path": "<Joystick>/stick/right",
                    "interactions": "",
                    "processors": "",
                    "groups": "Joystick",
                    "action": "Navigate",
                    "isComposite": false,
                    "isPartOfComposite": true
                },
                {
                    "name": "Keyboard",
                    "id": "cae29b10-cf9a-4cce-88d8-9cf59b1c1cd8",
                    "path": "2DVector",
                    "interactions": "",
                    "processors": "",
                    "groups": "",
                    "action": "Navigate",
                    "isComposite": true,
                    "isPartOfComposite": false
                },
                {
                    "name": "up",
                    "id": "a497f55b-2ebc-45dd-bdcb-79e878398c25",
                    "path": "<Keyboard>/w",
                    "interactions": "",
                    "processors": "",
                    "groups": "Keyboard&Mouse",
                    "action": "Navigate",
                    "isComposite": false,
                    "isPartOfComposite": true
                },
                {
                    "name": "up",
                    "id": "20368ade-3e6e-43a8-a0f2-1f45c4453504",
                    "path": "<Keyboard>/upArrow",
                    "interactions": "",
                    "processors": "",
                    "groups": "Keyboard&Mouse",
                    "action": "Navigate",
                    "isComposite": false,
                    "isPartOfComposite": true
                },
                {
                    "name": "down",
                    "id": "b5e420e8-ea39-44e4-8ad0-6a45930ddd43",
                    "path": "<Keyboard>/s",
                    "interactions": "",
                    "processors": "",
                    "groups": "Keyboard&Mouse",
                    "action": "Navigate",
                    "isComposite": false,
                    "isPartOfComposite": true
                },
                {
                    "name": "down",
                    "id": "2c14fe1a-6f76-4237-b265-09d2831c39ed",
                    "path": "<Keyboard>/downArrow",
                    "interactions": "",
                    "processors": "",
                    "groups": "Keyboard&Mouse",
                    "action": "Navigate",
                    "isComposite": false,
                    "isPartOfComposite": true
                },
                {
                    "name": "left",
                    "id": "2295c210-3860-4659-95d9-d43f591d7538",
                    "path": "<Keyboard>/a",
                    "interactions": "",
                    "processors": "",
                    "groups": "Keyboard&Mouse",
                    "action": "Navigate",
                    "isComposite": false,
                    "isPartOfComposite": true
                },
                {
                    "name": "left",
                    "id": "532c2718-fa8c-4678-ba1c-24649703a8ed",
                    "path": "<Keyboard>/leftArrow",
                    "interactions": "",
                    "processors": "",
                    "groups": "Keyboard&Mouse",
                    "action": "Navigate",
                    "isComposite": false,
                    "isPartOfComposite": true
                },
                {
                    "name": "right",
                    "id": "41f8e70e-946c-449c-b2bd-678033c7ed35",
                    "path": "<Keyboard>/d",
                    "interactions": "",
                    "processors": "",
                    "groups": "Keyboard&Mouse",
                    "action": "Navigate",
                    "isComposite": false,
                    "isPartOfComposite": true
                },
                {
                    "name": "right",
                    "id": "379a0873-61e5-458f-a116-5a3ac2bd9593",
                    "path": "<Keyboard>/rightArrow",
                    "interactions": "",
                    "processors": "",
                    "groups": "Keyboard&Mouse",
                    "action": "Navigate",
                    "isComposite": false,
                    "isPartOfComposite": true
                },
                {
                    "name": "",
                    "id": "2ab049f7-755c-4183-87a2-2e751fe6622b",
                    "path": "<Gamepad>/dpad",
                    "interactions": "",
                    "processors": "",
                    "groups": "",
                    "action": "Navigate",
                    "isComposite": false,
                    "isPartOfComposite": false
                },
                {
                    "name": "",
                    "id": "47c93cb8-f0f6-47ca-92c2-46100c07a39f",
                    "path": "*/{Submit}",
                    "interactions": "",
                    "processors": "",
                    "groups": "",
                    "action": "Submit",
                    "isComposite": false,
                    "isPartOfComposite": false
                },
                {
                    "name": "",
                    "id": "36e31588-8cdb-41c2-867c-ad1e85aba979",
                    "path": "<Keyboard>/space",
                    "interactions": "",
                    "processors": "",
                    "groups": "",
                    "action": "Submit",
                    "isComposite": false,
                    "isPartOfComposite": false
                },
                {
                    "name": "",
                    "id": "eeeb9caf-c8fe-4639-94dd-d9ec4fbbf3f8",
                    "path": "*/{Cancel}",
                    "interactions": "",
                    "processors": "",
                    "groups": "",
                    "action": "Cancel",
                    "isComposite": false,
                    "isPartOfComposite": false
                },
                {
                    "name": "",
                    "id": "9ad78473-138c-4370-9707-9767e31b09f2",
                    "path": "<Gamepad>/buttonEast",
                    "interactions": "",
                    "processors": "",
                    "groups": "",
                    "action": "Cancel",
                    "isComposite": false,
                    "isPartOfComposite": false
                },
                {
                    "name": "",
                    "id": "d28196e7-f807-4380-9a36-4d7179a10b6f",
                    "path": "<Mouse>/position",
                    "interactions": "",
                    "processors": "",
                    "groups": "Keyboard&Mouse",
                    "action": "Point",
                    "isComposite": false,
                    "isPartOfComposite": false
                },
                {
                    "name": "",
                    "id": "2b71f39e-88de-428f-9aa2-ca2001244dbd",
                    "path": "<Pen>/position",
                    "interactions": "",
                    "processors": "",
                    "groups": "Keyboard&Mouse",
                    "action": "Point",
                    "isComposite": false,
                    "isPartOfComposite": false
                },
                {
                    "name": "",
                    "id": "747a4093-d7ae-4b5e-b98d-31d11040f00d",
                    "path": "<Touchscreen>/touch*/position",
                    "interactions": "",
                    "processors": "",
                    "groups": "Touch",
                    "action": "Point",
                    "isComposite": false,
                    "isPartOfComposite": false
                },
                {
                    "name": "",
                    "id": "6dfe2eb3-2c94-4ae6-8cfc-4b2fc86ba1e2",
                    "path": "<Mouse>/leftButton",
                    "interactions": "",
                    "processors": "",
                    "groups": ";Keyboard&Mouse",
                    "action": "Click",
                    "isComposite": false,
                    "isPartOfComposite": false
                },
                {
                    "name": "",
                    "id": "cb3ddb52-b74d-4bc0-8c3e-d2fb981b9401",
                    "path": "<Pen>/tip",
                    "interactions": "",
                    "processors": "",
                    "groups": ";Keyboard&Mouse",
                    "action": "Click",
                    "isComposite": false,
                    "isPartOfComposite": false
                },
                {
                    "name": "",
                    "id": "e40d39a6-ebe1-4fc6-bfa1-c1e708fdef3a",
                    "path": "<Touchscreen>/touch*/press",
                    "interactions": "",
                    "processors": "",
                    "groups": "Touch",
                    "action": "Click",
                    "isComposite": false,
                    "isPartOfComposite": false
                },
                {
                    "name": "",
                    "id": "7a863014-9cf0-4098-9237-d97bda9fc2e8",
                    "path": "<XRController>/trigger",
                    "interactions": "",
                    "processors": "",
                    "groups": "XR",
                    "action": "Click",
                    "isComposite": false,
                    "isPartOfComposite": false
                },
                {
                    "name": "",
                    "id": "b0faa650-21b0-476d-8ebd-ca3013c07b30",
                    "path": "<Mouse>/scroll",
                    "interactions": "",
                    "processors": "",
                    "groups": ";Keyboard&Mouse",
                    "action": "ScrollWheel",
                    "isComposite": false,
                    "isPartOfComposite": false
                },
                {
                    "name": "",
                    "id": "84401216-1786-4c07-9c26-5a13da86bcad",
                    "path": "<Mouse>/middleButton",
                    "interactions": "",
                    "processors": "",
                    "groups": ";Keyboard&Mouse",
                    "action": "MiddleClick",
                    "isComposite": false,
                    "isPartOfComposite": false
                },
                {
                    "name": "",
                    "id": "9a75247a-7a93-47e6-bad3-0eea219464c4",
                    "path": "<Mouse>/rightButton",
                    "interactions": "",
                    "processors": "",
                    "groups": ";Keyboard&Mouse",
                    "action": "RightClick",
                    "isComposite": false,
                    "isPartOfComposite": false
                },
                {
                    "name": "",
                    "id": "7a60aa86-1197-4813-87eb-f4ccdddd0b39",
                    "path": "<XRController>/devicePosition",
                    "interactions": "",
                    "processors": "",
                    "groups": "XR",
                    "action": "TrackedDevicePosition",
                    "isComposite": false,
                    "isPartOfComposite": false
                },
                {
                    "name": "",
                    "id": "2ebb71ea-945f-4f15-96bb-dcaaab09c06a",
                    "path": "<XRController>/deviceRotation",
                    "interactions": "",
                    "processors": "",
                    "groups": "XR",
                    "action": "TrackedDeviceOrientation",
                    "isComposite": false,
                    "isPartOfComposite": false
                },
                {
                    "name": "",
                    "id": "a6f713bd-2a5b-4bdf-9484-668ea80e3262",
                    "path": "<Gamepad>/rightStick",
                    "interactions": "",
                    "processors": "",
                    "groups": "",
                    "action": "ScrollGamepad",
                    "isComposite": false,
                    "isPartOfComposite": false
                },
                {
                    "name": "2D Vector",
                    "id": "cae778f8-984f-49fe-ac5a-988dc74646a8",
                    "path": "2DVector",
                    "interactions": "",
                    "processors": "ScaleVector2(x=0.5,y=0.5)",
                    "groups": "",
                    "action": "ScrollGamepad",
                    "isComposite": true,
                    "isPartOfComposite": false
                },
                {
                    "name": "up",
                    "id": "f6dfe1e7-a837-4e99-82d1-5a8f938f7803",
                    "path": "<Keyboard>/upArrow",
                    "interactions": "",
                    "processors": "",
                    "groups": "",
                    "action": "ScrollGamepad",
                    "isComposite": false,
                    "isPartOfComposite": true
                },
                {
                    "name": "down",
                    "id": "4dfae6ca-abf6-4b89-a669-b410692d69a9",
                    "path": "<Keyboard>/downArrow",
                    "interactions": "",
                    "processors": "",
                    "groups": "",
                    "action": "ScrollGamepad",
                    "isComposite": false,
                    "isPartOfComposite": true
                },
                {
                    "name": "left",
                    "id": "1816e45b-b798-433c-98f0-9e22ec71a623",
                    "path": "<Keyboard>/leftArrow",
                    "interactions": "",
                    "processors": "",
                    "groups": "",
                    "action": "ScrollGamepad",
                    "isComposite": false,
                    "isPartOfComposite": true
                },
                {
                    "name": "right",
                    "id": "28c8a39e-0029-4438-b7e4-8b819f0dab43",
                    "path": "<Keyboard>/rightArrow",
                    "interactions": "",
                    "processors": "",
                    "groups": "",
                    "action": "ScrollGamepad",
                    "isComposite": false,
                    "isPartOfComposite": true
                },
                {
                    "name": "",
                    "id": "2ee68b4a-5e26-4889-9d35-a2baafe07cea",
                    "path": "<Keyboard>/escape",
                    "interactions": "",
                    "processors": "",
                    "groups": "",
                    "action": "SettingShortcut",
                    "isComposite": false,
                    "isPartOfComposite": false
                },
                {
                    "name": "",
                    "id": "1bc56ddb-4f7b-40a7-8e3b-b9d277a681a3",
                    "path": "<Gamepad>/start",
                    "interactions": "",
                    "processors": "",
                    "groups": "",
                    "action": "SettingShortcut",
                    "isComposite": false,
                    "isPartOfComposite": false
                }
            ]
        },
        {
            "name": "Gameplay",
            "id": "148830bd-6850-418b-9e6e-0dbb37c7a44b",
            "actions": [
                {
                    "name": "GameplayAction",
                    "type": "Button",
                    "id": "62d06452-b166-4ab7-bb88-adc1dc1ca81d",
                    "expectedControlType": "Button",
                    "processors": "",
                    "interactions": "",
                    "initialStateCheck": false
                },
                {
                    "name": "OpenSetting",
                    "type": "Button",
                    "id": "ad69e381-c4ec-485c-8297-fc63dc71ea68",
                    "expectedControlType": "Button",
                    "processors": "",
                    "interactions": "",
                    "initialStateCheck": false
                },
                {
                    "name": "ActivePowerUp",
                    "type": "Button",
                    "id": "b7006736-32d0-4e15-a601-83c910107c03",
                    "expectedControlType": "Button",
                    "processors": "",
                    "interactions": "",
                    "initialStateCheck": false
                }
            ],
            "bindings": [
                {
                    "name": "",
                    "id": "5c5dfebb-18ff-4502-8b9e-1180b51ed3ab",
                    "path": "<Gamepad>/buttonSouth",
                    "interactions": "",
                    "processors": "",
                    "groups": "",
                    "action": "GameplayAction",
                    "isComposite": false,
                    "isPartOfComposite": false
                },
                {
                    "name": "",
                    "id": "20c8dff6-eddc-4b8f-b1cf-23e50b83d51a",
                    "path": "<Keyboard>/space",
                    "interactions": "",
                    "processors": "",
                    "groups": "",
                    "action": "GameplayAction",
                    "isComposite": false,
                    "isPartOfComposite": false
                },
                {
                    "name": "",
                    "id": "c8bdb2df-088b-4ee1-bc66-49c4c026b963",
                    "path": "<Gamepad>/start",
                    "interactions": "",
                    "processors": "",
                    "groups": "",
                    "action": "OpenSetting",
                    "isComposite": false,
                    "isPartOfComposite": false
                },
                {
                    "name": "",
                    "id": "ef155380-a693-457e-8827-65eb2aadbfc9",
                    "path": "<Keyboard>/escape",
                    "interactions": "",
                    "processors": "",
                    "groups": "",
                    "action": "OpenSetting",
                    "isComposite": false,
                    "isPartOfComposite": false
                },
                {
                    "name": "",
                    "id": "5bc79f81-f0af-4f8a-a04c-f42c8df86757",
                    "path": "<Keyboard>/alt",
                    "interactions": "",
                    "processors": "",
                    "groups": "",
                    "action": "ActivePowerUp",
                    "isComposite": false,
                    "isPartOfComposite": false
                },
                {
                    "name": "",
                    "id": "52e050bc-20c5-4c86-9615-5882cf954a27",
                    "path": "<Keyboard>/rightAlt",
                    "interactions": "",
                    "processors": "",
                    "groups": "",
                    "action": "ActivePowerUp",
                    "isComposite": false,
                    "isPartOfComposite": false
                },
                {
                    "name": "",
                    "id": "91aa9d03-3cce-46da-ae5f-3b30e02566ec",
                    "path": "<Gamepad>/buttonWest",
                    "interactions": "",
                    "processors": "",
                    "groups": "",
                    "action": "ActivePowerUp",
                    "isComposite": false,
                    "isPartOfComposite": false
                },
                {
                    "name": "",
                    "id": "1869821c-6a58-459d-b189-fc6e31345672",
                    "path": "<Mouse>/rightButton",
                    "interactions": "",
                    "processors": "",
                    "groups": "",
                    "action": "ActivePowerUp",
                    "isComposite": false,
                    "isPartOfComposite": false
                }
            ]
        }
    ],
    "controlSchemes": []
}